;HEADER
;Curve_gcode
G21       ;
G90       ;
G28       ;
M117 Printing
;ENDHEADER
;Layer #
G0 X161.57 Y243.16 Z90.00 F2500
M400
M280 P1 S0
G1 X161.57 Y243.16 Z35.00 F3000
G1 X50.00 Y650.00 Z35.00 F3000
G1 X50.00 Y50.00 Z35.00 F3000
G1 X80.00 Y50.00 Z35.00 F3000
G1 X80.00 Y650.00 Z35.00 F3000
G1 X110.00 Y650.00 Z35.00 F3000
G1 X110.00 Y50.00 Z35.00 F3000
G1 X140.00 Y50.00 Z35.00 F3000
G1 X140.00 Y650.00 Z35.00 F3000
G1 X170.00 Y650.00 Z35.00 F3000
G1 X170.00 Y50.00 Z35.00 F3000
G1 X200.00 Y50.00 Z35.00 F3000
G1 X200.00 Y650.00 Z35.00 F3000
G1 X230.00 Y650.00 Z35.00 F3000
G1 X230.00 Y50.00 Z35.00 F3000
G1 X260.00 Y50.00 Z35.00 F3000
G1 X260.00 Y650.00 Z35.00 F3000
G1 X290.00 Y650.00 Z35.00 F3000
G1 X290.00 Y50.00 Z35.00 F3000
G1 X320.00 Y50.00 Z35.00 F3000
G1 X320.00 Y650.00 Z35.00 F3000
G1 X350.00 Y650.00 Z35.00 F3000
G1 X350.00 Y50.00 Z35.00 F3000
G1 X380.00 Y50.00 Z35.00 F3000
G1 X380.00 Y650.00 Z35.00 F3000
G1 X410.00 Y650.00 Z35.00 F3000
G1 X410.00 Y50.00 Z35.00 F3000
G1 X440.00 Y50.00 Z35.00 F3000
G1 X440.00 Y650.00 Z35.00 F3000
G1 X470.00 Y650.00 Z35.00 F3000
G1 X470.00 Y50.00 Z35.00 F3000
G1 X500.00 Y50.00 Z35.00 F3000
G1 X500.00 Y650.00 Z35.00 F3000
G1 X530.00 Y650.00 Z35.00 F3000
G1 X530.00 Y50.00 Z35.00 F3000
G1 X560.00 Y50.00 Z35.00 F3000
G1 X560.00 Y650.00 Z35.00 F3000
G1 X590.00 Y650.00 Z35.00 F3000
G1 X590.00 Y50.00 Z35.00 F3000
G1 X620.00 Y50.00 Z35.00 F3000
G1 X620.00 Y650.00 Z35.00 F3000
G1 X650.00 Y650.00 Z35.00 F3000
G1 X650.00 Y50.00 Z35.00 F3000
G0 X650.00 Y50.00 Z90.00 F2500
G0 X164.34 Y249.07 Z90.00 F2500
G1 X164.34 Y249.07 Z35.00 F3000
G0 X164.34 Y249.07 Z90.00 F2500
G0 X167.50 Y255.12 Z90.00 F2500
G1 X167.50 Y255.12 Z35.00 F3000
G0 X167.50 Y255.12 Z90.00 F2500
G0 X171.03 Y261.25 Z90.00 F2500
G1 X171.03 Y261.25 Z35.00 F3000
G0 X171.03 Y261.25 Z90.00 F2500
G0 X174.91 Y267.42 Z90.00 F2500
G1 X174.91 Y267.42 Z35.00 F3000
G0 X174.91 Y267.42 Z90.00 F2500
G0 X179.14 Y273.59 Z90.00 F2500
G1 X179.14 Y273.59 Z35.00 F3000
G0 X179.14 Y273.59 Z90.00 F2500
G0 X183.71 Y279.71 Z90.00 F2500
G1 X183.71 Y279.71 Z35.00 F3000
G0 X183.71 Y279.71 Z90.00 F2500
G0 X188.59 Y285.75 Z90.00 F2500
G1 X188.59 Y285.75 Z35.00 F3000
G0 X188.59 Y285.75 Z90.00 F2500
G0 X193.79 Y291.65 Z90.00 F2500
G1 X193.79 Y291.65 Z35.00 F3000
G0 X193.79 Y291.65 Z90.00 F2500
G0 X199.27 Y297.38 Z90.00 F2500
G1 X199.27 Y297.38 Z35.00 F3000
G0 X199.27 Y297.38 Z90.00 F2500
G0 X205.04 Y302.90 Z90.00 F2500
G1 X205.04 Y302.90 Z35.00 F3000
G0 X205.04 Y302.90 Z90.00 F2500
G0 X211.08 Y308.15 Z90.00 F2500
G1 X211.08 Y308.15 Z35.00 F3000
G0 X211.08 Y308.15 Z90.00 F2500
G0 X217.38 Y313.10 Z90.00 F2500
G1 X217.38 Y313.10 Z35.00 F3000
G0 X217.38 Y313.10 Z90.00 F2500
G0 X223.92 Y317.70 Z90.00 F2500
G1 X223.92 Y317.70 Z35.00 F3000
G0 X223.92 Y317.70 Z90.00 F2500
G0 X230.69 Y321.91 Z90.00 F2500
G1 X230.69 Y321.91 Z35.00 F3000
G0 X230.69 Y321.91 Z90.00 F2500
G0 X237.68 Y325.68 Z90.00 F2500
G1 X237.68 Y325.68 Z35.00 F3000
G0 X237.68 Y325.68 Z90.00 F2500
G0 X244.88 Y328.98 Z90.00 F2500
G1 X244.88 Y328.98 Z35.00 F3000
G0 X244.88 Y328.98 Z90.00 F2500
G0 X252.27 Y331.78 Z90.00 F2500
G1 X252.27 Y331.78 Z35.00 F3000
G0 X252.27 Y331.78 Z90.00 F2500
G0 X259.82 Y334.10 Z90.00 F2500
G1 X259.82 Y334.10 Z35.00 F3000
G0 X259.82 Y334.10 Z90.00 F2500
G0 X267.53 Y336.01 Z90.00 F2500
G1 X267.53 Y336.01 Z35.00 F3000
G0 X267.53 Y336.01 Z90.00 F2500
G0 X275.35 Y337.54 Z90.00 F2500
G1 X275.35 Y337.54 Z35.00 F3000
G0 X275.35 Y337.54 Z90.00 F2500
G0 X283.28 Y338.76 Z90.00 F2500
G1 X283.28 Y338.76 Z35.00 F3000
G0 X283.28 Y338.76 Z90.00 F2500
G0 X291.28 Y339.70 Z90.00 F2500
G1 X291.28 Y339.70 Z35.00 F3000
G0 X291.28 Y339.70 Z90.00 F2500
G0 X307.42 Y340.97 Z90.00 F2500
G1 X307.42 Y340.97 Z35.00 F3000
G0 X307.42 Y340.97 Z90.00 F2500
G0 X339.57 Y342.47 Z90.00 F2500
G1 X339.57 Y342.47 Z35.00 F3000
G0 X339.57 Y342.47 Z90.00 F2500
G0 X355.20 Y343.49 Z90.00 F2500
G1 X355.20 Y343.49 Z35.00 F3000
G0 X355.20 Y343.49 Z90.00 F2500
G0 X362.83 Y344.25 Z90.00 F2500
G1 X362.83 Y344.25 Z35.00 F3000
G0 X362.83 Y344.25 Z90.00 F2500
G0 X370.30 Y345.23 Z90.00 F2500
G1 X370.30 Y345.23 Z35.00 F3000
G0 X370.30 Y345.23 Z90.00 F2500
G0 X377.59 Y346.49 Z90.00 F2500
G1 X377.59 Y346.49 Z35.00 F3000
G0 X377.59 Y346.49 Z90.00 F2500
G0 X384.68 Y348.02 Z90.00 F2500
G1 X384.68 Y348.02 Z35.00 F3000
G0 X384.68 Y348.02 Z90.00 F2500
G0 X391.56 Y349.82 Z90.00 F2500
G1 X391.56 Y349.82 Z35.00 F3000
G0 X391.56 Y349.82 Z90.00 F2500
G0 X398.22 Y351.89 Z90.00 F2500
G1 X398.22 Y351.89 Z35.00 F3000
G0 X398.22 Y351.89 Z90.00 F2500
G0 X404.64 Y354.23 Z90.00 F2500
G1 X404.64 Y354.23 Z35.00 F3000
G0 X404.64 Y354.23 Z90.00 F2500
G0 X410.82 Y356.83 Z90.00 F2500
G1 X410.82 Y356.83 Z35.00 F3000
G0 X410.82 Y356.83 Z90.00 F2500
G0 X416.73 Y359.69 Z90.00 F2500
G1 X416.73 Y359.69 Z35.00 F3000
G0 X416.73 Y359.69 Z90.00 F2500
G0 X422.36 Y362.80 Z90.00 F2500
G1 X422.36 Y362.80 Z35.00 F3000
G0 X422.36 Y362.80 Z90.00 F2500
G0 X427.71 Y366.16 Z90.00 F2500
G1 X427.71 Y366.16 Z35.00 F3000
G0 X427.71 Y366.16 Z90.00 F2500
G0 X432.75 Y369.78 Z90.00 F2500
G1 X432.75 Y369.78 Z35.00 F3000
G0 X432.75 Y369.78 Z90.00 F2500
G0 X437.48 Y373.64 Z90.00 F2500
G1 X437.48 Y373.64 Z35.00 F3000
G0 X437.48 Y373.64 Z90.00 F2500
G0 X441.88 Y377.74 Z90.00 F2500
G1 X441.88 Y377.74 Z35.00 F3000
G0 X441.88 Y377.74 Z90.00 F2500
G0 X445.93 Y382.08 Z90.00 F2500
G1 X445.93 Y382.08 Z35.00 F3000
G0 X445.93 Y382.08 Z90.00 F2500
G0 X449.62 Y386.66 Z90.00 F2500
G1 X449.62 Y386.66 Z35.00 F3000
G0 X449.62 Y386.66 Z90.00 F2500
G0 X452.95 Y391.46 Z90.00 F2500
G1 X452.95 Y391.46 Z35.00 F3000
G0 X452.95 Y391.46 Z90.00 F2500
G0 X455.89 Y396.50 Z90.00 F2500
G1 X455.89 Y396.50 Z35.00 F3000
G0 X455.89 Y396.50 Z90.00 F2500
G0 X458.45 Y401.76 Z90.00 F2500
G1 X458.45 Y401.76 Z35.00 F3000
G0 X458.45 Y401.76 Z90.00 F2500
G0 X460.66 Y407.21 Z90.00 F2500
G1 X460.66 Y407.21 Z35.00 F3000
G0 X460.66 Y407.21 Z90.00 F2500
G0 X462.58 Y412.84 Z90.00 F2500
G1 X462.58 Y412.84 Z35.00 F3000
G0 X462.58 Y412.84 Z90.00 F2500
G0 X464.27 Y418.61 Z90.00 F2500
G1 X464.27 Y418.61 Z35.00 F3000
G0 X464.27 Y418.61 Z90.00 F2500
G0 X467.13 Y430.47 Z90.00 F2500
G1 X467.13 Y430.47 Z35.00 F3000
G0 X467.13 Y430.47 Z90.00 F2500
G0 X472.34 Y454.73 Z90.00 F2500
G1 X472.34 Y454.73 Z35.00 F3000
G0 X472.34 Y454.73 Z90.00 F2500
G0 X475.53 Y466.69 Z90.00 F2500
G1 X475.53 Y466.69 Z35.00 F3000
G0 X475.53 Y466.69 Z90.00 F2500
G0 X477.45 Y472.54 Z90.00 F2500
G1 X477.45 Y472.54 Z35.00 F3000
G0 X477.45 Y472.54 Z90.00 F2500
G0 X479.67 Y478.25 Z90.00 F2500
G1 X479.67 Y478.25 Z35.00 F3000
G0 X479.67 Y478.25 Z90.00 F2500
G0 X482.23 Y483.81 Z90.00 F2500
G1 X482.23 Y483.81 Z35.00 F3000
G0 X482.23 Y483.81 Z90.00 F2500
G0 X485.19 Y489.19 Z90.00 F2500
G1 X485.19 Y489.19 Z35.00 F3000
G0 X485.19 Y489.19 Z90.00 F2500
G0 X488.58 Y494.36 Z90.00 F2500
G1 X488.58 Y494.36 Z35.00 F3000
G0 X488.58 Y494.36 Z90.00 F2500
G0 X492.38 Y499.29 Z90.00 F2500
G1 X492.38 Y499.29 Z35.00 F3000
G0 X492.38 Y499.29 Z90.00 F2500
G0 X496.55 Y503.97 Z90.00 F2500
G1 X496.55 Y503.97 Z35.00 F3000
G0 X496.55 Y503.97 Z90.00 F2500
G0 X501.04 Y508.35 Z90.00 F2500
G1 X501.04 Y508.35 Z35.00 F3000
G0 X501.04 Y508.35 Z90.00 F2500
G0 X505.82 Y512.42 Z90.00 F2500
G1 X505.82 Y512.42 Z35.00 F3000
G0 X505.82 Y512.42 Z90.00 F2500
G0 X510.83 Y516.15 Z90.00 F2500
G1 X510.83 Y516.15 Z35.00 F3000
G0 X510.83 Y516.15 Z90.00 F2500
G0 X516.04 Y519.52 Z90.00 F2500
G1 X516.04 Y519.52 Z35.00 F3000
G0 X516.04 Y519.52 Z90.00 F2500
G0 X521.41 Y522.49 Z90.00 F2500
G1 X521.41 Y522.49 Z35.00 F3000
G0 X521.41 Y522.49 Z90.00 F2500
G0 X526.88 Y525.04 Z90.00 F2500
G1 X526.88 Y525.04 Z35.00 F3000
G0 X526.88 Y525.04 Z90.00 F2500
G0 X532.43 Y527.15 Z90.00 F2500
G1 X532.43 Y527.15 Z35.00 F3000
G0 X532.43 Y527.15 Z90.00 F2500
G0 X538.01 Y528.79 Z90.00 F2500
G1 X538.01 Y528.79 Z35.00 F3000
G0 X538.01 Y528.79 Z90.00 F2500
G0 X543.57 Y529.94 Z90.00 F2500
G1 X543.57 Y529.94 Z35.00 F3000
G0 X543.57 Y529.94 Z90.00 F2500
G0 X549.08 Y530.55 Z90.00 F2500
G1 X549.08 Y530.55 Z35.00 F3000
G0 X549.08 Y530.55 Z90.00 F2500
G0 X554.48 Y530.62 Z90.00 F2500
G1 X554.48 Y530.62 Z35.00 F3000
G0 X554.48 Y530.62 Z90.00 F2500
G0 X559.75 Y530.12 Z90.00 F2500
G1 X559.75 Y530.12 Z35.00 F3000
G0 X559.75 Y530.12 Z90.00 F2500
G0 X564.83 Y529.01 Z90.00 F2500
G1 X564.83 Y529.01 Z35.00 F3000
G0 X564.83 Y529.01 Z90.00 F2500
G0 X569.70 Y527.29 Z90.00 F2500
G1 X569.70 Y527.29 Z35.00 F3000
G0 X569.70 Y527.29 Z90.00 F2500
G0 X574.34 Y524.95 Z90.00 F2500
G1 X574.34 Y524.95 Z35.00 F3000
G0 X574.34 Y524.95 Z90.00 F2500
G0 X578.76 Y522.03 Z90.00 F2500
G1 X578.76 Y522.03 Z35.00 F3000
G0 X578.76 Y522.03 Z90.00 F2500
G0 X582.96 Y518.54 Z90.00 F2500
G1 X582.96 Y518.54 Z35.00 F3000
G0 X582.96 Y518.54 Z90.00 F2500
G0 X586.93 Y514.50 Z90.00 F2500
G1 X586.93 Y514.50 Z35.00 F3000
G0 X586.93 Y514.50 Z90.00 F2500
G0 X590.69 Y509.93 Z90.00 F2500
G1 X590.69 Y509.93 Z35.00 F3000
G0 X590.69 Y509.93 Z90.00 F2500
G0 X594.23 Y504.85 Z90.00 F2500
G1 X594.23 Y504.85 Z35.00 F3000
G0 X594.23 Y504.85 Z90.00 F2500
G0 X597.56 Y499.29 Z90.00 F2500
G1 X597.56 Y499.29 Z35.00 F3000
G0 X597.56 Y499.29 Z90.00 F2500
G0 X600.67 Y493.25 Z90.00 F2500
G1 X600.67 Y493.25 Z35.00 F3000
G0 X600.67 Y493.25 Z90.00 F2500
G0 X603.57 Y486.77 Z90.00 F2500
G1 X603.57 Y486.77 Z35.00 F3000
G0 X603.57 Y486.77 Z90.00 F2500
G0 X606.26 Y479.85 Z90.00 F2500
G1 X606.26 Y479.85 Z35.00 F3000
G0 X606.26 Y479.85 Z90.00 F2500
G0 X608.73 Y472.53 Z90.00 F2500
G1 X608.73 Y472.53 Z35.00 F3000
G0 X608.73 Y472.53 Z90.00 F2500
G0 X611.00 Y464.81 Z90.00 F2500
G1 X611.00 Y464.81 Z35.00 F3000
G0 X611.00 Y464.81 Z90.00 F2500
G0 X613.06 Y456.73 Z90.00 F2500
G1 X613.06 Y456.73 Z35.00 F3000
G0 X613.06 Y456.73 Z90.00 F2500
G0 X614.91 Y448.29 Z90.00 F2500
G1 X614.91 Y448.29 Z35.00 F3000
G0 X614.91 Y448.29 Z90.00 F2500
G0 X616.56 Y439.53 Z90.00 F2500
G1 X616.56 Y439.53 Z35.00 F3000
G0 X616.56 Y439.53 Z90.00 F2500
G0 X618.00 Y430.46 Z90.00 F2500
G1 X618.00 Y430.46 Z35.00 F3000
G0 X618.00 Y430.46 Z90.00 F2500
G0 X619.21 Y421.14 Z90.00 F2500
G1 X619.21 Y421.14 Z35.00 F3000
G0 X619.21 Y421.14 Z90.00 F2500
G0 X620.17 Y411.64 Z90.00 F2500
G1 X620.17 Y411.64 Z35.00 F3000
G0 X620.17 Y411.64 Z90.00 F2500
G0 X620.86 Y402.03 Z90.00 F2500
G1 X620.86 Y402.03 Z35.00 F3000
G0 X620.86 Y402.03 Z90.00 F2500
G0 X621.25 Y392.36 Z90.00 F2500
G1 X621.25 Y392.36 Z35.00 F3000
G0 X621.25 Y392.36 Z90.00 F2500
G0 X621.32 Y382.71 Z90.00 F2500
G1 X621.32 Y382.71 Z35.00 F3000
G0 X621.32 Y382.71 Z90.00 F2500
G0 X621.05 Y373.14 Z90.00 F2500
G1 X621.05 Y373.14 Z35.00 F3000
G0 X621.05 Y373.14 Z90.00 F2500
G0 X620.42 Y363.71 Z90.00 F2500
G1 X620.42 Y363.71 Z35.00 F3000
G0 X620.42 Y363.71 Z90.00 F2500
G0 X619.39 Y354.50 Z90.00 F2500
G1 X619.39 Y354.50 Z35.00 F3000
G0 X619.39 Y354.50 Z90.00 F2500
G0 X617.96 Y345.55 Z90.00 F2500
G1 X617.96 Y345.55 Z35.00 F3000
G0 X617.96 Y345.55 Z90.00 F2500
G0 X616.09 Y336.95 Z90.00 F2500
G1 X616.09 Y336.95 Z35.00 F3000
G0 X616.09 Y336.95 Z90.00 F2500
G0 X613.76 Y328.75 Z90.00 F2500
G1 X613.76 Y328.75 Z35.00 F3000
G0 X613.76 Y328.75 Z90.00 F2500
G0 X610.95 Y321.02 Z90.00 F2500
G1 X610.95 Y321.02 Z35.00 F3000
G0 X610.95 Y321.02 Z90.00 F2500
G0 X607.63 Y313.82 Z90.00 F2500
G1 X607.63 Y313.82 Z35.00 F3000
G0 X607.63 Y313.82 Z90.00 F2500
G0 X603.79 Y307.22 Z90.00 F2500
G1 X603.79 Y307.22 Z35.00 F3000
G0 X603.79 Y307.22 Z90.00 F2500
G0 X601.66 Y304.17 Z90.00 F2500
G1 X601.66 Y304.17 Z35.00 F3000
G0 X601.66 Y304.17 Z90.00 F2500
G0 X599.39 Y301.29 Z90.00 F2500
G1 X599.39 Y301.29 Z35.00 F3000
G0 X599.39 Y301.29 Z90.00 F2500
G0 X596.98 Y298.59 Z90.00 F2500
G1 X596.98 Y298.59 Z35.00 F3000
G0 X596.98 Y298.59 Z90.00 F2500
G0 X594.43 Y296.07 Z90.00 F2500
G1 X594.43 Y296.07 Z35.00 F3000
G0 X594.43 Y296.07 Z90.00 F2500
G0 X591.76 Y293.71 Z90.00 F2500
G1 X591.76 Y293.71 Z35.00 F3000
G0 X591.76 Y293.71 Z90.00 F2500
G0 X588.95 Y291.51 Z90.00 F2500
G1 X588.95 Y291.51 Z35.00 F3000
G0 X588.95 Y291.51 Z90.00 F2500
G0 X582.98 Y287.56 Z90.00 F2500
G1 X582.98 Y287.56 Z35.00 F3000
G0 X582.98 Y287.56 Z90.00 F2500
G0 X576.58 Y284.16 Z90.00 F2500
G1 X576.58 Y284.16 Z35.00 F3000
G0 X576.58 Y284.16 Z90.00 F2500
G0 X569.79 Y281.24 Z90.00 F2500
G1 X569.79 Y281.24 Z35.00 F3000
G0 X569.79 Y281.24 Z90.00 F2500
G0 X562.66 Y278.74 Z90.00 F2500
G1 X562.66 Y278.74 Z35.00 F3000
G0 X562.66 Y278.74 Z90.00 F2500
G0 X555.23 Y276.61 Z90.00 F2500
G1 X555.23 Y276.61 Z35.00 F3000
G0 X555.23 Y276.61 Z90.00 F2500
G0 X547.55 Y274.77 Z90.00 F2500
G1 X547.55 Y274.77 Z35.00 F3000
G0 X547.55 Y274.77 Z90.00 F2500
G0 X482.67 Y263.53 Z90.00 F2500
G1 X482.67 Y263.53 Z35.00 F3000
G0 X482.67 Y263.53 Z90.00 F2500
G0 X474.81 Y261.65 Z90.00 F2500
G1 X474.81 Y261.65 Z35.00 F3000
G0 X474.81 Y261.65 Z90.00 F2500
G0 X467.12 Y259.52 Z90.00 F2500
G1 X467.12 Y259.52 Z35.00 F3000
G0 X467.12 Y259.52 Z90.00 F2500
G0 X459.58 Y257.15 Z90.00 F2500
G1 X459.58 Y257.15 Z35.00 F3000
G0 X459.58 Y257.15 Z90.00 F2500
G0 X452.19 Y254.56 Z90.00 F2500
G1 X452.19 Y254.56 Z35.00 F3000
G0 X452.19 Y254.56 Z90.00 F2500
G0 X444.94 Y251.76 Z90.00 F2500
G1 X444.94 Y251.76 Z35.00 F3000
G0 X444.94 Y251.76 Z90.00 F2500
G0 X437.84 Y248.74 Z90.00 F2500
G1 X437.84 Y248.74 Z35.00 F3000
G0 X437.84 Y248.74 Z90.00 F2500
G0 X430.87 Y245.52 Z90.00 F2500
G1 X430.87 Y245.52 Z35.00 F3000
G0 X430.87 Y245.52 Z90.00 F2500
G0 X424.02 Y242.10 Z90.00 F2500
G1 X424.02 Y242.10 Z35.00 F3000
G0 X424.02 Y242.10 Z90.00 F2500
G0 X417.30 Y238.50 Z90.00 F2500
G1 X417.30 Y238.50 Z35.00 F3000
G0 X417.30 Y238.50 Z90.00 F2500
G0 X410.70 Y234.73 Z90.00 F2500
G1 X410.70 Y234.73 Z35.00 F3000
G0 X410.70 Y234.73 Z90.00 F2500
G0 X397.83 Y226.68 Z90.00 F2500
G1 X397.83 Y226.68 Z35.00 F3000
G0 X397.83 Y226.68 Z90.00 F2500
G0 X385.37 Y218.02 Z90.00 F2500
G1 X385.37 Y218.02 Z35.00 F3000
G0 X385.37 Y218.02 Z90.00 F2500
G0 X373.27 Y208.83 Z90.00 F2500
G1 X373.27 Y208.83 Z35.00 F3000
G0 X373.27 Y208.83 Z90.00 F2500
G0 X361.48 Y199.21 Z90.00 F2500
G1 X361.48 Y199.21 Z35.00 F3000
G0 X361.48 Y199.21 Z90.00 F2500
G0 X338.35 Y179.81 Z90.00 F2500
G1 X338.35 Y179.81 Z35.00 F3000
G0 X338.35 Y179.81 Z90.00 F2500
G0 X326.76 Y170.67 Z90.00 F2500
G1 X326.76 Y170.67 Z35.00 F3000
G0 X326.76 Y170.67 Z90.00 F2500
G0 X320.89 Y166.37 Z90.00 F2500
G1 X320.89 Y166.37 Z35.00 F3000
G0 X320.89 Y166.37 Z90.00 F2500
G0 X314.97 Y162.32 Z90.00 F2500
G1 X314.97 Y162.32 Z35.00 F3000
G0 X314.97 Y162.32 Z90.00 F2500
G0 X308.96 Y158.54 Z90.00 F2500
G1 X308.96 Y158.54 Z35.00 F3000
G0 X308.96 Y158.54 Z90.00 F2500
G0 X302.85 Y155.08 Z90.00 F2500
G1 X302.85 Y155.08 Z35.00 F3000
G0 X302.85 Y155.08 Z90.00 F2500
G0 X296.64 Y151.98 Z90.00 F2500
G1 X296.64 Y151.98 Z35.00 F3000
G0 X296.64 Y151.98 Z90.00 F2500
G0 X290.29 Y149.27 Z90.00 F2500
G1 X290.29 Y149.27 Z35.00 F3000
G0 X290.29 Y149.27 Z90.00 F2500
G0 X283.80 Y147.00 Z90.00 F2500
G1 X283.80 Y147.00 Z35.00 F3000
G0 X283.80 Y147.00 Z90.00 F2500
G0 X277.15 Y145.21 Z90.00 F2500
G1 X277.15 Y145.21 Z35.00 F3000
G0 X277.15 Y145.21 Z90.00 F2500
G0 X270.33 Y143.91 Z90.00 F2500
G1 X270.33 Y143.91 Z35.00 F3000
G0 X270.33 Y143.91 Z90.00 F2500
G0 X263.38 Y143.11 Z90.00 F2500
G1 X263.38 Y143.11 Z35.00 F3000
G0 X263.38 Y143.11 Z90.00 F2500
G0 X256.32 Y142.78 Z90.00 F2500
G1 X256.32 Y142.78 Z35.00 F3000
G0 X256.32 Y142.78 Z90.00 F2500
G0 X249.22 Y142.88 Z90.00 F2500
G1 X249.22 Y142.88 Z35.00 F3000
G0 X249.22 Y142.88 Z90.00 F2500
G0 X242.10 Y143.40 Z90.00 F2500
G1 X242.10 Y143.40 Z35.00 F3000
G0 X242.10 Y143.40 Z90.00 F2500
G0 X235.00 Y144.31 Z90.00 F2500
G1 X235.00 Y144.31 Z35.00 F3000
G0 X235.00 Y144.31 Z90.00 F2500
G0 X227.97 Y145.59 Z90.00 F2500
G1 X227.97 Y145.59 Z35.00 F3000
G0 X227.97 Y145.59 Z90.00 F2500
G0 X221.05 Y147.21 Z90.00 F2500
G1 X221.05 Y147.21 Z35.00 F3000
G0 X221.05 Y147.21 Z90.00 F2500
G0 X214.27 Y149.14 Z90.00 F2500
G1 X214.27 Y149.14 Z35.00 F3000
G0 X214.27 Y149.14 Z90.00 F2500
G0 X207.69 Y151.37 Z90.00 F2500
G1 X207.69 Y151.37 Z35.00 F3000
G0 X207.69 Y151.37 Z90.00 F2500
G0 X201.33 Y153.86 Z90.00 F2500
G1 X201.33 Y153.86 Z35.00 F3000
G0 X201.33 Y153.86 Z90.00 F2500
G0 X195.24 Y156.60 Z90.00 F2500
G1 X195.24 Y156.60 Z35.00 F3000
G0 X195.24 Y156.60 Z90.00 F2500
G0 X189.46 Y159.55 Z90.00 F2500
G1 X189.46 Y159.55 Z35.00 F3000
G0 X189.46 Y159.55 Z90.00 F2500
G0 X184.03 Y162.70 Z90.00 F2500
G1 X184.03 Y162.70 Z35.00 F3000
G0 X184.03 Y162.70 Z90.00 F2500
G0 X179.00 Y166.01 Z90.00 F2500
G1 X179.00 Y166.01 Z35.00 F3000
G0 X179.00 Y166.01 Z90.00 F2500
G0 X174.39 Y169.47 Z90.00 F2500
G1 X174.39 Y169.47 Z35.00 F3000
G0 X174.39 Y169.47 Z90.00 F2500
G0 X170.25 Y173.04 Z90.00 F2500
G1 X170.25 Y173.04 Z35.00 F3000
G0 X170.25 Y173.04 Z90.00 F2500
G0 X166.57 Y176.74 Z90.00 F2500
G1 X166.57 Y176.74 Z35.00 F3000
G0 X166.57 Y176.74 Z90.00 F2500
G0 X163.36 Y180.57 Z90.00 F2500
G1 X163.36 Y180.57 Z35.00 F3000
G0 X163.36 Y180.57 Z90.00 F2500
G0 X160.61 Y184.52 Z90.00 F2500
G1 X160.61 Y184.52 Z35.00 F3000
G0 X160.61 Y184.52 Z90.00 F2500
G0 X158.31 Y188.60 Z90.00 F2500
G1 X158.31 Y188.60 Z35.00 F3000
G0 X158.31 Y188.60 Z90.00 F2500
G0 X156.45 Y192.82 Z90.00 F2500
G1 X156.45 Y192.82 Z35.00 F3000
G0 X156.45 Y192.82 Z90.00 F2500
G0 X155.05 Y197.18 Z90.00 F2500
G1 X155.05 Y197.18 Z35.00 F3000
G0 X155.05 Y197.18 Z90.00 F2500
G0 X154.08 Y201.68 Z90.00 F2500
G1 X154.08 Y201.68 Z35.00 F3000
G0 X154.08 Y201.68 Z90.00 F2500
G0 X153.54 Y206.32 Z90.00 F2500
G1 X153.54 Y206.32 Z35.00 F3000
G0 X153.54 Y206.32 Z90.00 F2500
G0 X153.44 Y211.11 Z90.00 F2500
G1 X153.44 Y211.11 Z35.00 F3000
G0 X153.44 Y211.11 Z90.00 F2500
G0 X153.76 Y216.06 Z90.00 F2500
G1 X153.76 Y216.06 Z35.00 F3000
G0 X153.76 Y216.06 Z90.00 F2500
G0 X154.50 Y221.15 Z90.00 F2500
G1 X154.50 Y221.15 Z35.00 F3000
G0 X154.50 Y221.15 Z90.00 F2500
G0 X155.66 Y226.41 Z90.00 F2500
G1 X155.66 Y226.41 Z35.00 F3000
G0 X155.66 Y226.41 Z90.00 F2500
G0 X157.22 Y231.83 Z90.00 F2500
G1 X157.22 Y231.83 Z35.00 F3000
G0 X157.22 Y231.83 Z90.00 F2500
G0 X159.20 Y237.41 Z90.00 F2500
G1 X159.20 Y237.41 Z35.00 F3000
G0 X159.20 Y237.41 Z90.00 F2500
G0 X161.57 Y243.16 Z90.00 F2500
G1 X161.57 Y243.16 Z35.00 F3000
G0 X161.57 Y243.16 Z90.00 F2500
M400
M280 P1 S90
;FOOTER
; end_gcode
G28 X Y
G0 Z100          ;HOME
