EESchema Schematic File Version 4
EELAYER 30 0
EELAYER END
$Descr A4 11693 8268
encoding utf-8
Sheet 1 1
Title ""
Date ""
Rev ""
Comp ""
Comment1 ""
Comment2 ""
Comment3 ""
Comment4 ""
$EndDescr
$Comp
L assignment2-rescue:ESP32-WROOM-ESP32-footprints-Shem-Lib U2
U 1 1 5E6929A0
P 5450 3700
F 0 "U2" H 5425 5087 60  0000 C CNN
F 1 "ESP32-WROOM" H 5425 4981 60  0000 C CNN
F 2 "ESP32-footprints-Lib:ESP32-WROOM_FAB" H 5800 5050 60  0001 C CNN
F 3 "" H 5000 4150 60  0001 C CNN
	1    5450 3700
	1    0    0    -1  
$EndComp
$Comp
L assignment2-rescue:6MM_SWITCH6MM_SWITCH-fab S1
U 1 1 5E69874F
P 5400 1150
F 0 "S1" V 5071 1150 45  0000 C CNN
F 1 "6MM_SWITCH6MM_SWITCH" V 5155 1150 45  0000 C CNN
F 2 "fab-6MM_SWITCH" H 5430 1300 20  0001 C CNN
F 3 "" H 5400 1150 50  0001 C CNN
	1    5400 1150
	0    1    1    0   
$EndComp
$Comp
L assignment2-rescue:SLIDE-SWITCH-fab S3
U 1 1 5E6AA0D5
P 7850 1250
F 0 "S3" H 7850 1529 45  0000 C CNN
F 1 "SLIDE-SWITCH" H 7850 1445 45  0000 C CNN
F 2 "fab-AYZ0102AGRLC" H 7880 1400 20  0001 C CNN
F 3 "" H 7850 1250 50  0001 C CNN
	1    7850 1250
	1    0    0    -1  
$EndComp
$Comp
L Connector:Conn_01x11_Female J1
U 1 1 5E6AAB6B
P 3650 3800
F 0 "J1" H 3542 3075 50  0000 C CNN
F 1 "Conn_01x11_Female" H 3542 3166 50  0000 C CNN
F 2 "Connector_PinSocket_2.54mm:PinSocket_1x11_P2.54mm_Vertical" H 3650 3800 50  0001 C CNN
F 3 "~" H 3650 3800 50  0001 C CNN
	1    3650 3800
	-1   0    0    1   
$EndComp
$Comp
L Connector:Conn_01x09_Female J2
U 1 1 5E6AD021
P 5500 5200
F 0 "J2" V 5573 5180 50  0000 C CNN
F 1 "Conn_01x09_Female" V 5664 5180 50  0000 C CNN
F 2 "Connector_PinSocket_2.54mm:PinSocket_1x09_P2.54mm_Vertical" H 5500 5200 50  0001 C CNN
F 3 "~" H 5500 5200 50  0001 C CNN
	1    5500 5200
	0    1    1    0   
$EndComp
$Comp
L Connector:Conn_01x13_Female J3
U 1 1 5E6AD858
P 6900 3350
F 0 "J3" H 6928 3376 50  0000 L CNN
F 1 "Conn_01x13_Female" H 6928 3285 50  0000 L CNN
F 2 "Connector_PinSocket_2.54mm:PinSocket_1x13_P2.54mm_Vertical" H 6900 3350 50  0001 C CNN
F 3 "~" H 6900 3350 50  0001 C CNN
	1    6900 3350
	1    0    0    -1  
$EndComp
$Comp
L assignment2-rescue:RES-US1206FAB-fab 10k1(2)1
U 1 1 5E699BA4
P 6150 1550
F 0 "10k1(2)1" H 6150 1744 45  0000 C CNN
F 1 "R2" H 6150 1660 45  0000 C CNN
F 2 "fab-R1206FAB" H 6180 1700 20  0001 C CNN
F 3 "" H 6150 1550 50  0001 C CNN
	1    6150 1550
	0    1    1    0   
$EndComp
Text GLabel 4850 1150 0    50   Input ~ 0
GND
Text GLabel 6350 1150 2    50   Input ~ 0
RESET
Text GLabel 6150 2000 3    50   Input ~ 0
3V3
Wire Wire Line
	5600 1150 6150 1150
Wire Wire Line
	6150 1350 6150 1150
Connection ~ 6150 1150
Wire Wire Line
	6150 1150 6350 1150
Wire Notes Line
	4450 650  6700 650 
Wire Notes Line
	6700 650  6700 2250
Wire Notes Line
	6700 2250 4450 2250
Wire Notes Line
	4450 2250 4450 650 
Wire Wire Line
	7650 1250 7450 1250
Wire Wire Line
	8050 1350 8400 1350
Wire Notes Line
	8850 800  8850 1500
Wire Notes Line
	8850 1500 6900 1500
Wire Notes Line
	6900 1500 6900 800 
Wire Notes Line
	6900 800  8850 800 
Wire Wire Line
	3850 3300 4500 3300
Wire Wire Line
	3850 3400 4500 3400
Wire Wire Line
	3850 3500 4500 3500
Wire Wire Line
	3850 3600 4500 3600
Wire Wire Line
	3850 3800 4500 3800
Wire Wire Line
	3850 3900 4500 3900
Wire Wire Line
	3850 4000 4500 4000
Wire Wire Line
	3850 4100 4500 4100
Wire Wire Line
	3850 4200 4500 4200
Wire Wire Line
	3850 4300 4500 4300
Wire Wire Line
	5100 5000 5100 4750
Wire Wire Line
	5200 5000 5200 4750
Wire Wire Line
	5300 5000 5300 4750
Wire Wire Line
	5400 5000 5400 4750
Wire Wire Line
	5500 5000 5500 4750
Wire Wire Line
	5600 5000 5600 4750
Wire Wire Line
	5700 5000 5700 4750
Wire Wire Line
	5800 5000 5800 4750
Wire Wire Line
	5900 5000 5900 4750
Text GLabel 5100 5300 3    50   Input ~ 0
PIN13
Text GLabel 4300 3100 1    50   Input ~ 0
3V3
Wire Wire Line
	5000 4750 5000 5150
Wire Wire Line
	5000 5150 4250 5150
Wire Wire Line
	4250 5150 4250 4400
Wire Wire Line
	4250 4400 4500 4400
Text GLabel 4250 4900 0    50   Input ~ 0
GND
Wire Wire Line
	6300 4350 6350 4350
Text GLabel 7000 4350 2    50   Input ~ 0
GND
Connection ~ 6350 4350
Text GLabel 7050 3950 2    50   Input ~ 0
PIN0
Text Notes 6950 900  0    50   ~ 0
SLIDE SWITCH\n
Text Notes 4500 750  0    50   ~ 0
RESET BUTTON
Wire Wire Line
	6150 1750 6150 2000
Wire Wire Line
	4850 1150 5200 1150
Wire Wire Line
	5200 1250 5200 1150
Connection ~ 5200 1150
Wire Wire Line
	5600 1250 5600 1150
Connection ~ 5600 1150
$Comp
L Regulator_Linear:NCP1117-12_SOT223 U1
U 1 1 5E83F2D9
P 2250 1200
F 0 "U1" H 2250 1442 50  0000 C CNN
F 1 "NCP1117-12_SOT223" H 2250 1351 50  0000 C CNN
F 2 "Package_TO_SOT_SMD:SOT-223-3_TabPin2" H 2250 1400 50  0001 C CNN
F 3 "http://www.onsemi.com/pub_link/Collateral/NCP1117-D.PDF" H 2350 950 50  0001 C CNN
	1    2250 1200
	1    0    0    -1  
$EndComp
Text GLabel 3800 1800 2    50   Input ~ 0
GND
Wire Wire Line
	3850 900  3850 1200
Text GLabel 3850 900  1    50   Input ~ 0
3V3
Wire Notes Line
	750  550  750  2350
Wire Notes Line
	750  2350 4050 2350
Wire Notes Line
	4050 2350 4050 550 
Wire Notes Line
	4050 550  750  550 
Text Notes 850  700  0    50   ~ 0
FTDI\n
$Comp
L assignment2-rescue:CAP-UNPOLARIZEDFAB-fab C3
U 1 1 5E83F2FB
P 3200 1550
F 0 "C3" V 3108 1638 45  0000 L CNN
F 1 "10uF" V 3192 1638 45  0000 L CNN
F 2 "fab-C1206FAB" H 3230 1700 20  0001 C CNN
F 3 "" H 3200 1550 50  0001 C CNN
	1    3200 1550
	0    1    1    0   
$EndComp
$Comp
L assignment2-rescue:FTDI-SMD-HEADER-fab M2
U 1 1 5E846D9F
P 1300 1000
F 0 "M2" H 1300 1000 45  0001 C CNN
F 1 "FTDI-SMD-HEADER" H 1300 1000 45  0001 C CNN
F 2 "fab-1X06SMD" H 1330 1150 20  0001 C CNN
F 3 "" H 1300 1000 50  0001 C CNN
	1    1300 1000
	-1   0    0    1   
$EndComp
Wire Wire Line
	1300 1100 1500 1100
Wire Wire Line
	1500 1100 1500 800 
Wire Wire Line
	1500 800  1950 800 
Wire Wire Line
	1300 1200 1600 1200
Wire Wire Line
	1600 1200 1600 900 
Wire Wire Line
	1600 900  1950 900 
Wire Wire Line
	1800 1300 1800 1200
Wire Wire Line
	1800 1200 1950 1200
Wire Wire Line
	1300 1500 1450 1500
Wire Wire Line
	1450 1500 1450 1800
Wire Wire Line
	2250 1500 2250 1800
Wire Wire Line
	2550 1200 2700 1200
Wire Wire Line
	2700 1350 2700 1200
Connection ~ 2700 1200
Wire Wire Line
	2700 1200 3200 1200
Wire Wire Line
	3200 1350 3200 1200
Connection ~ 3200 1200
Wire Wire Line
	3200 1200 3450 1200
Wire Wire Line
	2250 1800 2700 1800
Connection ~ 2250 1800
Wire Wire Line
	3200 1650 3200 1800
Connection ~ 3200 1800
Wire Wire Line
	2700 1650 2700 1800
Connection ~ 2700 1800
Wire Wire Line
	2700 1800 3200 1800
$Comp
L assignment2-rescue:CAP-UNPOLARIZEDFAB-fab C1
U 1 1 5E83F305
P 2700 1550
F 0 "C1" V 2608 1638 45  0000 L CNN
F 1 "0.1uF" V 2692 1638 45  0000 L CNN
F 2 "fab-C1206FAB" H 2730 1700 20  0001 C CNN
F 3 "" H 2700 1550 50  0001 C CNN
	1    2700 1550
	0    1    1    0   
$EndComp
$Comp
L assignment2-rescue:CAP-UNPOLARIZEDFAB-fab C2
U 1 1 5E8D1A7D
P 1650 1700
F 0 "C2" V 1558 1788 45  0000 L CNN
F 1 "10uF" V 1642 1788 45  0000 L CNN
F 2 "fab-C1206FAB" H 1680 1850 20  0001 C CNN
F 3 "" H 1650 1700 50  0001 C CNN
	1    1650 1700
	0    1    1    0   
$EndComp
Wire Wire Line
	1450 1800 1650 1800
Wire Wire Line
	1300 1300 1650 1300
Connection ~ 1650 1800
Wire Wire Line
	1650 1800 2250 1800
Wire Wire Line
	1650 1500 1650 1300
Connection ~ 1650 1300
Wire Wire Line
	1650 1300 1800 1300
Text GLabel 1950 800  2    50   Input ~ 0
RX
Text GLabel 1950 900  2    50   Input ~ 0
TX
Wire Wire Line
	3450 1200 3450 1300
Connection ~ 3450 1200
Wire Wire Line
	3450 1200 3850 1200
$Comp
L assignment2-rescue:RES-US1206FAB-fab R1
U 1 1 5E9094A5
P 3450 1500
F 0 "R1" V 3408 1568 45  0000 L CNN
F 1 "100" V 3492 1568 45  0000 L CNN
F 2 "fab-R1206FAB" H 3480 1650 20  0001 C CNN
F 3 "" H 3450 1500 50  0001 C CNN
	1    3450 1500
	0    1    1    0   
$EndComp
Wire Wire Line
	3450 1750 3600 1750
Wire Wire Line
	3600 1750 3600 1300
Wire Wire Line
	3600 1300 3700 1300
Wire Wire Line
	3450 1750 3450 1700
Wire Wire Line
	3200 1800 3700 1800
Connection ~ 3700 1800
Wire Wire Line
	3700 1800 3800 1800
$Comp
L assignment2-rescue:LEDFAB1206-fab M1
U 1 1 5E91C5BF
P 3700 1500
F 0 "M1" H 3777 1592 45  0000 L CNN
F 1 "LEDFAB1206" H 3777 1508 45  0000 L CNN
F 2 "fab-LED1206FAB" H 3730 1650 20  0001 C CNN
F 3 "" H 3700 1500 50  0001 C CNN
	1    3700 1500
	1    0    0    -1  
$EndComp
Wire Wire Line
	3700 1600 3700 1800
Connection ~ 6950 4350
Wire Wire Line
	7050 3950 6900 3950
Wire Wire Line
	4500 3100 4300 3100
Wire Wire Line
	4500 3200 4350 3200
Text GLabel 4350 3200 0    50   Input ~ 0
RESET
Text GLabel 7450 1250 0    50   Input ~ 0
PROG
Text GLabel 8400 1350 2    50   Input ~ 0
GND
Text Notes 9000 3500 0    50   ~ 0
LED\n
Wire Notes Line
	8950 4850 10550 4850
Wire Notes Line
	8950 3400 8950 4850
Wire Notes Line
	10550 3400 8950 3400
Wire Notes Line
	10550 4850 10550 3400
Text GLabel 10050 4750 2    50   Input ~ 0
PIN13
Wire Wire Line
	9600 4750 10050 4750
Wire Wire Line
	9600 4650 9600 4750
Connection ~ 9600 3800
Wire Wire Line
	9600 3800 9600 4250
Wire Wire Line
	9600 3800 9250 3800
Text GLabel 9250 3800 0    50   Input ~ 0
GND
$Comp
L assignment2-rescue:RES-US1206FAB-fab R3
U 1 1 5E6D953A
P 9600 4450
F 0 "R3" V 9558 4518 45  0000 L CNN
F 1 "RES-US1206FAB" V 9642 4518 45  0000 L CNN
F 2 "fab-R1206FAB" H 9630 4600 20  0001 C CNN
F 3 "" H 9600 4450 50  0001 C CNN
	1    9600 4450
	0    1    1    0   
$EndComp
$Comp
L assignment2-rescue:LEDFAB1206-fab L2
U 1 1 5E6D75CF
P 9600 3700
F 0 "L2" H 9677 3792 45  0000 L CNN
F 1 "LEDFAB1206" H 9677 3708 45  0000 L CNN
F 2 "fab-LED1206FAB" H 9630 3850 20  0001 C CNN
F 3 "" H 9600 3700 50  0001 C CNN
	1    9600 3700
	1    0    0    -1  
$EndComp
$Comp
L assignment2-rescue:RES-US1206FAB-fab R4
U 1 1 5E6D6500
P 9850 1850
F 0 "R4" V 9808 1918 45  0000 L CNN
F 1 "RES-US1206FAB" V 9892 1918 45  0000 L CNN
F 2 "fab-R1206FAB" H 9880 2000 20  0001 C CNN
F 3 "" H 9850 1850 50  0001 C CNN
	1    9850 1850
	0    1    1    0   
$EndComp
Text Notes 9000 900  0    50   ~ 0
SWITCH 2\n
Wire Notes Line
	8950 2750 8950 800 
Wire Notes Line
	11000 2750 8950 2750
Wire Notes Line
	11000 800  11000 2750
Wire Notes Line
	8950 800  11000 800 
Text GLabel 9850 2450 3    50   Input ~ 0
3V3
Wire Wire Line
	9850 2050 9850 2450
Text GLabel 10600 1150 2    50   Input ~ 0
PIN10
Wire Wire Line
	9350 2200 9350 1550
Text GLabel 9350 2200 3    50   Input ~ 0
GND
Wire Wire Line
	9850 1150 9350 1150
Connection ~ 9850 1150
Wire Wire Line
	9850 1150 9850 1650
Wire Wire Line
	10600 1150 9850 1150
$Comp
L assignment2-rescue:6MM_SWITCH6MM_SWITCH-fab S2
U 1 1 5E6D56AB
P 9250 1350
F 0 "S2" H 9403 1392 45  0000 L CNN
F 1 "6MM_SWITCH6MM_SWITCH" H 9403 1308 45  0000 L CNN
F 2 "fab-6MM_SWITCH" H 9280 1500 20  0001 C CNN
F 3 "" H 9250 1350 50  0001 C CNN
	1    9250 1350
	1    0    0    -1  
$EndComp
Text GLabel 6450 2750 1    50   Input ~ 0
3V3
Wire Wire Line
	6700 2750 6450 2750
Wire Wire Line
	6700 2850 6350 2850
Text GLabel 6350 2850 1    50   Input ~ 0
GND
Wire Wire Line
	6950 4350 7000 4350
Wire Wire Line
	6350 4350 6950 4350
Wire Wire Line
	6950 4250 6950 4350
Wire Wire Line
	6350 4250 6950 4250
Wire Wire Line
	6700 2950 6350 2950
Wire Wire Line
	6700 3050 6350 3050
Wire Wire Line
	6700 3150 6350 3150
Wire Wire Line
	6700 3250 6350 3250
Wire Wire Line
	6700 3350 6350 3350
Wire Wire Line
	6350 4050 6700 4050
Wire Wire Line
	6700 4050 6700 3950
Wire Wire Line
	6350 3950 6650 3950
Wire Wire Line
	6650 3950 6650 3850
Wire Wire Line
	6650 3850 6700 3850
Wire Wire Line
	6350 3850 6600 3850
Wire Wire Line
	6600 3850 6600 3750
Wire Wire Line
	6600 3750 6700 3750
Wire Wire Line
	6550 3750 6550 3650
Wire Wire Line
	6550 3650 6700 3650
Wire Wire Line
	6350 3750 6550 3750
Wire Wire Line
	6350 3650 6500 3650
Wire Wire Line
	6500 3650 6500 3550
Wire Wire Line
	6500 3550 6700 3550
Wire Wire Line
	6350 3550 6450 3550
Wire Wire Line
	6450 3550 6450 3450
Wire Wire Line
	6450 3450 6700 3450
Wire Wire Line
	6350 4150 7150 4150
Text GLabel 7150 4150 2    50   Input ~ 0
PROG
Wire Wire Line
	5100 5000 5100 5300
Connection ~ 5100 5000
Text GLabel 3550 3700 0    50   Input ~ 0
PIN10
Wire Wire Line
	3550 3700 3850 3700
Connection ~ 3850 3700
Wire Wire Line
	3850 3700 4500 3700
$EndSCHEMATC
